\contentsline {part}{DEDICATION}{v}{section*.5}
\contentsline {part}{ACKNOWLEDGEMENTS}{vi}{section*.7}
\contentsline {part}{LIST OF TABLES}{viii}{section*.9}
\contentsline {part}{LIST OF FIGURES}{ix}{section*.10}
\contentsline {chapter}{\numberline {1}\uppercase {Introduction}}{1}{chapter.1}
\contentsline {section}{Disclaimer}{1}{section*.12}
\contentsline {section}{Getting started}{1}{section*.12}
\contentsline {section}{References}{5}{figure.caption.13}
\contentsline {section}{Theorem environments}{5}{figure.caption.13}
\contentsline {section}{Figures}{6}{corollary.1.1.1}
\contentsline {subsection}{Single figures}{6}{section*.14}
\contentsline {part}{CHAPTER}{1}{section*.11}
\contentsline {part}{REFERENCES}{7}{section*.16}
\contentsline {part}{VITA}{7}{section*.17}
